{
	"successStories": [{
		"thumb": "theme/images/thumb-success-stories1.png",
		"desc": "Thank you so much, One Music PH! More than giving us a chance to perform, you actually believed in us.",
		"artist": "UNIT 406",
		"artistCategory": "Band"
	}, {
		"thumb": "theme/images/thumb-success-stories2.png",
		"desc": "Ramdam na ramdam ko ang suporta ng One Music PH sa akin from day 1. Parang bang nakahanap ako ng pamilya. Maraming salamat, One Music, for making my dreams come true.",
		"artist": "Volts Vallejo",
		"artistCategory": "Singer/Songwriter"
	}]
}